…
``` r
#Rectangle the full species list:#
txts <- map(good, content, as = "parsed")
```

``` r
rectangle_me <- function(x) as_tibble(compact(x))
stack_txt <- function(txt) map_dfr(txt$result, rectangle_me)
all_sci_names <- purrr::map_dfr(txts,stack_txt)
all_sci_names
```

    # A tibble: 122,933 x 12
       taxonid kingdom_name phylum_name class_name order_name family_name genus_name
         <int> <chr>        <chr>       <chr>      <chr>      <chr>       <chr>     
     1       3 ANIMALIA     MOLLUSCA    GASTROPODA STYLOMMAT… ENDODONTID… Aaadonta  
     2       4 ANIMALIA     MOLLUSCA    GASTROPODA STYLOMMAT… ENDODONTID… Aaadonta  
     3       5 ANIMALIA     MOLLUSCA    GASTROPODA STYLOMMAT… ENDODONTID… Aaadonta  
     4       6 ANIMALIA     MOLLUSCA    GASTROPODA STYLOMMAT… ENDODONTID… Aaadonta  
     5       7 ANIMALIA     MOLLUSCA    GASTROPODA STYLOMMAT… ENDODONTID… Aaadonta  
     6       8 ANIMALIA     MOLLUSCA    GASTROPODA STYLOMMAT… ENDODONTID… Aaadonta  
     7       9 ANIMALIA     CHORDATA    ACTINOPTE… CYPRINIFO… CYPRINIDAE  Aaptosyax 
     8      18 ANIMALIA     CHORDATA    MAMMALIA   RODENTIA   ABROCOMIDAE Abrocoma  
     9      20 ANIMALIA     CHORDATA    REPTILIA   SQUAMATA   ANGUIDAE    Abronia   
    10      43 ANIMALIA     ARTHROPODA  INSECTA    ODONATA    AESHNIDAE   Acanthaes…
    # … with 122,923 more rows, and 5 more variables: scientific_name <chr>,
    #   category <chr>, infra_rank <chr>, infra_name <chr>, population <chr>

``` r
#Search for extinction date#
extinct <- all_sci_names %>% filter(category == "EX")
extinct
```

    # A tibble: 919 x 12
       taxonid kingdom_name phylum_name class_name order_name family_name genus_name
         <int> <chr>        <chr>       <chr>      <chr>      <chr>       <chr>     
     1      73 ANIMALIA     CHORDATA    ACTINOPTE… CYPRINIFO… CYPRINIDAE  Mirogrex  
     2      82 ANIMALIA     ARTHROPODA  INSECTA    EPHEMEROP… ACANTHAMET… Acanthame…
     3     167 ANIMALIA     MOLLUSCA    GASTROPODA STYLOMMAT… ACHATINELL… Achatinel…
     4     170 ANIMALIA     MOLLUSCA    GASTROPODA STYLOMMAT… ACHATINELL… Achatinel…
     5     173 ANIMALIA     MOLLUSCA    GASTROPODA STYLOMMAT… ACHATINELL… Achatinel…
     6     174 ANIMALIA     MOLLUSCA    GASTROPODA STYLOMMAT… ACHATINELL… Achatinel…
     7     179 ANIMALIA     MOLLUSCA    GASTROPODA STYLOMMAT… ACHATINELL… Achatinel…
     8     180 ANIMALIA     MOLLUSCA    GASTROPODA STYLOMMAT… ACHATINELL… Achatinel…
     9     181 ANIMALIA     MOLLUSCA    GASTROPODA STYLOMMAT… ACHATINELL… Achatinel…
    10     184 ANIMALIA     MOLLUSCA    GASTROPODA STYLOMMAT… ACHATINELL… Achatinel…
    # … with 909 more rows, and 5 more variables: scientific_name <chr>,
    #   category <chr>, infra_rank <chr>, infra_name <chr>, population <chr>
…
